-------------------------------------------------------------------------------
Test set: in.greendev.logistics.service.RepairServiceTest
-------------------------------------------------------------------------------
Tests run: 6, Failures: 0, Errors: 0, Skipped: 0, Time elapsed: 0.1 sec - in in.greendev.logistics.service.RepairServiceTest
